R入門2 データ操作
…
.pull-right[
<img src="fig/dplyr_logo.png" width="70%" style="display: block; margin: auto;" />
]

---

# 元のデータの見た目確認

```r
print(data_634_long)
```

```
## # A tibble: 24 × 4
##    学科     性別  学年  学生数
##    <fct>    <fct> <fct>  <dbl>
##  1 経済学科 男    1年      133
##  2 経済学科 男    2年      139
##  3 経済学科 男    3年      121
##  4 経済学科 男    4年      140
##  5 経済学科 女    1年       38
##  6 経済学科 女    2年       50
##  7 経済学科 女    3年       46
##  8 経済学科 女    4年       38
##  9 経営学科 男    1年      129
## 10 経営学科 男    2年      121
## # ℹ 14 more rows
```
…
列（変数）の名前を変更する

```r
data_634_long_eng <- data_634_long |>
  rename(department = 学科, 
         grade = 学年,
         gender = 性別,
         stu_num = 学生数)

print(data_634_long_eng)
```

```
## # A tibble: 24 × 4
##    department gender grade stu_num
##    <fct>      <fct>  <fct>   <dbl>
##  1 経済学科   男     1年       133
##  2 経済学科   男     2年       139
##  3 経済学科   男     3年       121
##  4 経済学科   男     4年       140
##  5 経済学科   女     1年        38
##  6 経済学科   女     2年        50
##  7 経済学科   女     3年        46
##  8 経済学科   女     4年        38
##  9 経営学科   男     1年       129
## 10 経営学科   男     2年       121
## # ℹ 14 more rows
```
---

# 特定の列だけ抽出する: select()

データのうち、学科と性別という変数だけ抽出したいとする

```r
data_634_long_select <- data_634_long |> 
  select(学科, 性別)

print(data_634_long_select)
```

```
## # A tibble: 24 × 2
##    学科     性別 
##    <fct>    <fct>
##  1 経済学科 男   
##  2 経済学科 男   
##  3 経済学科 男   
##  4 経済学科 男   
##  5 経済学科 女   
##  6 経済学科 女   
##  7 経済学科 女   
##  8 経済学科 女   
##  9 経営学科 男   
## 10 経営学科 男   
## # ℹ 14 more rows
```
…
---

# データの順番を並び替える: arrange()

データの順番を学年->性別の順番で並び替える

```r
data_634_long_arrange <- data_634_long |> 
  arrange(学年, 性別)

print(data_634_long_arrange)
```

```
## # A tibble: 24 × 4
##    学科     性別  学年  学生数
##    <fct>    <fct> <fct>  <dbl>
##  1 経済学科 男    1年      133
##  2 経営学科 男    1年      129
##  3 金融学科 男    1年       93
##  4 経済学科 女    1年       38
##  5 経営学科 女    1年       62
##  6 金融学科 女    1年       36
##  7 経済学科 男    2年      139
##  8 経営学科 男    2年      121
##  9 金融学科 男    2年       90
## 10 経済学科 女    2年       50
## # ℹ 14 more rows
```
---

# データの順番を並び替える: arrange()

デフォルトは昇順だが、desc()で降順で並び変えることもできる

```r
data_634_long_arrange2 <- data_634_long |> 
  arrange(desc(学年), 性別)

print(data_634_long_arrange2)
```

```
## # A tibble: 24 × 4
##    学科     性別  学年  学生数
##    <fct>    <fct> <fct>  <dbl>
##  1 経済学科 男    4年      140
##  2 経営学科 男    4年      117
##  3 金融学科 男    4年      108
##  4 経済学科 女    4年       38
##  5 経営学科 女    4年       52
##  6 金融学科 女    4年       24
##  7 経済学科 男    3年      121
##  8 経営学科 男    3年      111
##  9 金融学科 男    3年      107
## 10 経済学科 女    3年       46
## # ℹ 14 more rows
```
---

# データの列を並び替える: relocate()

学年の列を性別の前に持ってくる

```r
data_634_long_relocate <- data_634_long |> 
  relocate(学年, .before=性別)

print(data_634_long_relocate)
```

```
## # A tibble: 24 × 4
##    学科     学年  性別  学生数
##    <fct>    <fct> <fct>  <dbl>
##  1 経済学科 1年   男       133
##  2 経済学科 2年   男       139
##  3 経済学科 3年   男       121
##  4 経済学科 4年   男       140
##  5 経済学科 1年   女        38
##  6 経済学科 2年   女        50
##  7 経済学科 3年   女        46
##  8 経済学科 4年   女        38
##  9 経営学科 1年   男       129
## 10 経営学科 2年   男       121
## # ℹ 14 more rows
```
---

# データの列を並び替える: relocate()

学年の列を学科の後に持ってくる

```r
data_634_long_relocate2 <- data_634_long |> 
  relocate(学年, .after=学科)

print(data_634_long_relocate2)
```

```
## # A tibble: 24 × 4
##    学科     学年  性別  学生数
##    <fct>    <fct> <fct>  <dbl>
##  1 経済学科 1年   男       133
##  2 経済学科 2年   男       139
##  3 経済学科 3年   男       121
##  4 経済学科 4年   男       140
##  5 経済学科 1年   女        38
##  6 経済学科 2年   女        50
##  7 経済学科 3年   女        46
##  8 経済学科 4年   女        38
##  9 経営学科 1年   男       129
## 10 経営学科 2年   男       121
## # ℹ 14 more rows
```

---
# データの列を追加/編集する: mutate()

新しく、学生数を100で割った数値を作るとする

```r
data_634_long_mutate <- data_634_long |> 
  mutate(学生数100 = 学生数/100)

print(data_634_long_mutate)
```

```
## # A tibble: 24 × 5
##    学科     性別  学年  学生数 学生数100
##    <fct>    <fct> <fct>  <dbl>     <dbl>
##  1 経済学科 男    1年      133      1.33
##  2 経済学科 男    2年      139      1.39
##  3 経済学科 男    3年      121      1.21
##  4 経済学科 男    4年      140      1.4 
##  5 経済学科 女    1年       38      0.38
##  6 経済学科 女    2年       50      0.5 
##  7 経済学科 女    3年       46      0.46
##  8 経済学科 女    4年       38      0.38
##  9 経営学科 男    1年      129      1.29
## 10 経営学科 男    2年      121      1.21
## # ℹ 14 more rows
```
---

# データの列を追加/編集する: mutate()

存在する変数名にすると、新しく変数(列)を作らずに上書きする

```r
data_634_long_mutate2 <- data_634_long |> 
  mutate(学生数 = 学生数/100)

print(data_634_long_mutate2)
```

```
## # A tibble: 24 × 4
##    学科     性別  学年  学生数
##    <fct>    <fct> <fct>  <dbl>
##  1 経済学科 男    1年     1.33
##  2 経済学科 男    2年     1.39
##  3 経済学科 男    3年     1.21
##  4 経済学科 男    4年     1.4 
##  5 経済学科 女    1年     0.38
##  6 経済学科 女    2年     0.5 
##  7 経済学科 女    3年     0.46
##  8 経済学科 女    4年     0.38
##  9 経営学科 男    1年     1.29
## 10 経営学科 男    2年     1.21
## # ℹ 14 more rows
```
…
# データを横に統合：join()関数

ここでは`left_join`を使う

```r
# 学科の人数と学科の定員を統合する
data_634_long_keizai <- data_634_long |>
  left_join(data_634_keizai_teiin, by=c("学科"="学科"))

print(data_634_long_keizai)
```

```
## # A tibble: 24 × 5
##    学科     性別  学年  学生数  定員
##    <chr>    <fct> <fct>  <dbl> <dbl>
##  1 経済学科 男    1年      133   580
##  2 経済学科 男    2年      139   580
##  3 経済学科 男    3年      121   580
##  4 経済学科 男    4年      140   580
##  5 経済学科 女    1年       38   580
##  6 経済学科 女    2年       50   580
##  7 経済学科 女    3年       46   580
##  8 経済学科 女    4年       38   580
##  9 経営学科 男    1年      129   580
## 10 経営学科 男    2年      121   580
## # ℹ 14 more rows
```
…
