Chapter 19 描画課題のレビュー | 武蔵大生のためのRによる実証分析入門
…
19.7 Hyuga Yamanouchi

library(tidyverse)
data_ssdse <- read_csv("data/SSDSE-B-2024.csv", 
                       locale=locale(encoding="CP932"), 
                       skip=1)
data_ssdse

## # A tibble: 600 × 112
##     年度 地域コード 都道府県  総人口 `総人口（男）`
##    <dbl> <chr>      <chr>      <dbl>          <dbl>
##  1  2021 R01000     北海道   5183000        2446000
##  2  2020 R01000     北海道   5224614        2465088
##  3  2019 R01000     北海道   5259000        2480000
##  4  2018 R01000     北海道   5293000        2495000
##  5  2017 R01000     北海道   5325000        2510000
##  6  2016 R01000     北海道   5355000        2523000
##  7  2015 R01000     北海道   5381733        2537089
##  8  2014 R01000     北海道   5410000        2551000
##  9  2013 R01000     北海道   5438000        2565000
## 10  2012 R01000     北海道   5465000        2580000
## # ℹ 590 more rows
## # ℹ 107 more variables: `総人口（女）` <dbl>,
## #   日本人人口 <dbl>, `日本人人口（男）` <dbl>,
## #   `日本人人口（女）` <dbl>, `15歳未満人口` <dbl>,
## #   `15歳未満人口（男）` <dbl>,
## #   `15歳未満人口（女）` <dbl>, `15〜64歳人口` <dbl>,
## #   `15〜64歳人口（男）` <dbl>, …

data_ssdse_kanto<-data_ssdse|>
  filter(都道府県%in% c("東京都","神奈川県","埼玉県","千葉県","茨城県","栃木県","群馬県"))
data_ssdse_kanto

## # A tibble: 84 × 112
##     年度 地域コード 都道府県  総人口 `総人口（男）`
##    <dbl> <chr>      <chr>      <dbl>          <dbl>
##  1  2021 R08000     茨城県   2852000        1423000
##  2  2020 R08000     茨城県   2867009        1430976
##  3  2019 R08000     茨城県   2879000        1437000
##  4  2018 R08000     茨城県   2892000        1443000
##  5  2017 R08000     茨城県   2902000        1448000
##  6  2016 R08000     茨城県   2910000        1451000
##  7  2015 R08000     茨城県   2916976        1453594
##  8  2014 R08000     茨城県   2927000        1458000
##  9  2013 R08000     茨城県   2937000        1464000
## 10  2012 R08000     茨城県   2947000        1469000
## # ℹ 74 more rows
## # ℹ 107 more variables: `総人口（女）` <dbl>,
## #   日本人人口 <dbl>, `日本人人口（男）` <dbl>,
## #   `日本人人口（女）` <dbl>, `15歳未満人口` <dbl>,
## #   `15歳未満人口（男）` <dbl>,
## #   `15歳未満人口（女）` <dbl>, `15〜64歳人口` <dbl>,
## #   `15〜64歳人口（男）` <dbl>, …
…
